#
# There is insufficient memory for the Java Runtime Environment to continue.
# Native memory allocation (malloc) failed to allocate 32744 bytes for ChunkPool::allocate
# Possible reasons:
#   The system is out of physical RAM or swap space
#   In 32 bit mode, the process size limit was hit
# Possible solutions:
#   Reduce memory load on the system
#   Increase physical memory or swap space
#   Check if swap backing store is full
#   Use 64 bit Java on a 64 bit OS
#   Decrease Java heap size (-Xmx/-Xms)
#   Decrease number of Java threads
#   Decrease Java thread stack sizes (-Xss)
#   Set larger code cache with -XX:ReservedCodeCacheSize=
# This output file may be truncated or incomplete.
#
#  Out of Memory Error (allocation.cpp:273), pid=7124, tid=5996
#
# JRE version: Java(TM) SE Runtime Environment (8.0_73-b02) (build 1.8.0_73-b02)
# Java VM: Java HotSpot(TM) 64-Bit Server VM (25.73-b02 mixed mode windows-amd64 compressed oops)
# Failed to write core dump. Minidumps are not enabled by default on client versions of Windows
#

---------------  T H R E A D  ---------------

Current thread (0x0000000055aa7000):  JavaThread "C2 CompilerThread0" daemon [_thread_in_native, id=5996, stack(0x0000000057200000,0x0000000057300000)]

Stack: [0x0000000057200000,0x0000000057300000]
[error occurred during error reporting (printing stack bounds), id 0xc0000005]

Native frames: (J=compiled Java code, j=interpreted, Vv=VM code, C=native code)


Current CompileTask:
C2: 172682 2569       4       javax.swing.GroupLayout$BaselineGroup::calculateSize (71 bytes)


---------------  P R O C E S S  ---------------

Java Threads: ( => current thread )
  0x0000000058b01000 JavaThread "TimerQueue" daemon [_thread_blocked, id=6252, stack(0x000000005a220000,0x000000005a320000)]
  0x000000000039e000 JavaThread "DestroyJavaVM" [_thread_blocked, id=2244, stack(0x0000000002460000,0x0000000002560000)]
  0x000000005785f800 JavaThread "AWT-EventQueue-0" [_thread_blocked, id=6920, stack(0x0000000058190000,0x0000000058290000)]
  0x00000000577f9800 JavaThread "AWT-Windows" daemon [_thread_in_native, id=5856, stack(0x0000000057ee0000,0x0000000057fe0000)]
  0x00000000577f9000 JavaThread "AWT-Shutdown" [_thread_blocked, id=3616, stack(0x0000000057fe0000,0x00000000580e0000)]
  0x00000000577f8000 JavaThread "Java2D Disposer" daemon [_thread_blocked, id=2308, stack(0x0000000057d80000,0x0000000057e80000)]
  0x00000000574fa000 JavaThread "Service Thread" daemon [_thread_blocked, id=2840, stack(0x0000000057970000,0x0000000057a70000)]
  0x0000000057490800 JavaThread "C1 CompilerThread2" daemon [_thread_blocked, id=3900, stack(0x00000000570d0000,0x00000000571d0000)]
  0x0000000055aae800 JavaThread "C2 CompilerThread1" daemon [_thread_blocked, id=6288, stack(0x0000000057390000,0x0000000057490000)]
=>0x0000000055aa7000 JavaThread "C2 CompilerThread0" daemon [_thread_in_native, id=5996, stack(0x0000000057200000,0x0000000057300000)]
  0x0000000055aa2800 JavaThread "Attach Listener" daemon [_thread_blocked, id=6284, stack(0x0000000056fc0000,0x00000000570c0000)]
  0x0000000055aa1000 JavaThread "Signal Dispatcher" daemon [_thread_blocked, id=6968, stack(0x0000000056ea0000,0x0000000056fa0000)]
  0x0000000055a47000 JavaThread "Finalizer" daemon [_thread_blocked, id=3272, stack(0x0000000002360000,0x0000000002460000)]
  0x0000000055a40000 JavaThread "Reference Handler" daemon [_thread_blocked, id=6452, stack(0x0000000056c10000,0x0000000056d10000)]

Other Threads:
  0x0000000055a3a800 VMThread [stack: 0x0000000056a70000,0x0000000056b70000] [id=3896]
  0x000000005752b800 WatcherThread [stack: 0x0000000056d70000,0x0000000056e70000] [id=7076]

VM state:not at safepoint (normal execution)

VM Mutex/Monitor currently owned by a thread: None

Heap:
 PSYoungGen      total 35328K, used 23047K [0x00000000eb400000, 0x00000000ed900000, 0x0000000100000000)
  eden space 32768K, 62% used [0x00000000eb400000,0x00000000ec805d48,0x00000000ed400000)
  from space 2560K, 99% used [0x00000000ed680000,0x00000000ed8fc010,0x00000000ed900000)
  to   space 2560K, 0% used [0x00000000ed400000,0x00000000ed400000,0x00000000ed680000)
 ParOldGen       total 44032K, used 8110K [0x00000000c1c00000, 0x00000000c4700000, 0x00000000eb400000)
  object space 44032K, 18% used [0x00000000c1c00000,0x00000000c23eb830,0x00000000c4700000)
 Metaspace       used 19417K, capacity 19678K, committed 19968K, reserved 1067008K
  class space    used 2434K, capacity 2527K, committed 2560K, reserved 1048576K

Card table byte_map: [0x0000000011bf0000,0x0000000011df0000] byte_map_base: 0x00000000115e2000

Marking Bits: (ParMarkBitMap*) 0x0000000055030600
 Begin Bits: [0x0000000012530000, 0x00000000134c0000)
 End Bits:   [0x00000000134c0000, 0x0000000014450000)

Polling page: 0x0000000000330000

CodeCache: size=245760Kb used=8028Kb max_used=8033Kb free=237731Kb
 bounds [0x0000000002830000, 0x0000000003010000, 0x0000000011830000]
 total_blobs=3111 nmethods=2551 adapters=471
 compilation: enabled

Compilation events (10 events):
Event: 163.417 Thread 0x0000000057490800 nmethod 2567 0x0000000003007a90 code [0x0000000003007cc0, 0x00000000030089c8]
Event: 165.430 Thread 0x0000000055aae800 2568       4       javax.swing.GroupLayout$ParallelGroup::setValidSize (46 bytes)
Event: 165.442 Thread 0x0000000055aae800 nmethod 2568 0x000000000300c450 code [0x000000000300c600, 0x000000000300cee8]
Event: 172.458 Thread 0x0000000055aa7000 2569       4       javax.swing.GroupLayout$BaselineGroup::calculateSize (71 bytes)
Event: 172.459 Thread 0x0000000057490800 2570   !   3       javax.swing.RepaintManager::beginPaint (81 bytes)
Event: 172.459 Thread 0x0000000057490800 nmethod 2570 0x0000000003004c90 code [0x0000000003004e20, 0x00000000030052e8]
Event: 172.459 Thread 0x0000000057490800 2571       3       javax.swing.RepaintManager::paint (93 bytes)
Event: 172.460 Thread 0x0000000057490800 nmethod 2571 0x000000000300b5d0 code [0x000000000300b7a0, 0x000000000300c098]
Event: 172.460 Thread 0x0000000057490800 2572   !   3       javax.swing.RepaintManager::endPaint (72 bytes)
Event: 172.460 Thread 0x0000000057490800 nmethod 2572 0x000000000300aa10 code [0x000000000300aba0, 0x000000000300b3e8]

GC Heap History (4 events):
Event: 0.395 GC heap before
{Heap before GC invocations=1 (full 0):
 PSYoungGen      total 18944K, used 15017K [0x00000000eb400000, 0x00000000ec900000, 0x0000000100000000)
  eden space 16384K, 91% used [0x00000000eb400000,0x00000000ec2aa6e8,0x00000000ec400000)
  from space 2560K, 0% used [0x00000000ec680000,0x00000000ec680000,0x00000000ec900000)
  to   space 2560K, 0% used [0x00000000ec400000,0x00000000ec400000,0x00000000ec680000)
 ParOldGen       total 44032K, used 0K [0x00000000c1c00000, 0x00000000c4700000, 0x00000000eb400000)
  object space 44032K, 0% used [0x00000000c1c00000,0x00000000c1c00000,0x00000000c4700000)
 Metaspace       used 11103K, capacity 11306K, committed 11648K, reserved 1058816K
  class space    used 1489K, capacity 1575K, committed 1664K, reserved 1048576K
Event: 0.405 GC heap after
Heap after GC invocations=1 (full 0):
 PSYoungGen      total 18944K, used 1944K [0x00000000eb400000, 0x00000000ed900000, 0x0000000100000000)
  eden space 16384K, 0% used [0x00000000eb400000,0x00000000eb400000,0x00000000ec400000)
  from space 2560K, 75% used [0x00000000ec400000,0x00000000ec5e63f0,0x00000000ec680000)
  to   space 2560K, 0% used [0x00000000ed680000,0x00000000ed680000,0x00000000ed900000)
 ParOldGen       total 44032K, used 3764K [0x00000000c1c00000, 0x00000000c4700000, 0x00000000eb400000)
  object space 44032K, 8% used [0x00000000c1c00000,0x00000000c1fad0a0,0x00000000c4700000)
 Metaspace       used 11103K, capacity 11306K, committed 11648K, reserved 1058816K
  class space    used 1489K, capacity 1575K, committed 1664K, reserved 1048576K
}
Event: 17.935 GC heap before
{Heap before GC invocations=2 (full 0):
 PSYoungGen      total 18944K, used 18328K [0x00000000eb400000, 0x00000000ed900000, 0x0000000100000000)
  eden space 16384K, 100% used [0x00000000eb400000,0x00000000ec400000,0x00000000ec400000)
  from space 2560K, 75% used [0x00000000ec400000,0x00000000ec5e63f0,0x00000000ec680000)
  to   space 2560K, 0% used [0x00000000ed680000,0x00000000ed680000,0x00000000ed900000)
 ParOldGen       total 44032K, used 3764K [0x00000000c1c00000, 0x00000000c4700000, 0x00000000eb400000)
  object space 44032K, 8% used [0x00000000c1c00000,0x00000000c1fad0a0,0x00000000c4700000)
 Metaspace       used 14948K, capacity 15172K, committed 15488K, reserved 1062912K
  class space    used 2005K, capacity 2098K, committed 2176K, reserved 1048576K
Event: 17.958 GC heap after
Heap after GC invocations=2 (full 0):
 PSYoungGen      total 35328K, used 2544K [0x00000000eb400000, 0x00000000ed900000, 0x0000000100000000)
  eden space 32768K, 0% used [0x00000000eb400000,0x00000000eb400000,0x00000000ed400000)
  from space 2560K, 99% used [0x00000000ed680000,0x00000000ed8fc010,0x00000000ed900000)
  to   space 2560K, 0% used [0x00000000ed400000,0x00000000ed400000,0x00000000ed680000)
 ParOldGen       total 44032K, used 8110K [0x00000000c1c00000, 0x00000000c4700000, 0x00000000eb400000)
  object space 44032K, 18% used [0x00000000c1c00000,0x00000000c23eb830,0x00000000c4700000)
 Metaspace       used 14948K, capacity 15172K, committed 15488K, reserved 1062912K
  class space    used 2005K, capacity 2098K, committed 2176K, reserved 1048576K
}

Deoptimization events (10 events):
Event: 3.187 Thread 0x000000005785f800 Uncommon trap: reason=null_check action=make_not_entrant pc=0x0000000002ae1de4 method=javax.swing.plaf.nimbus.DerivedColor.equals(Ljava/lang/Object;)Z @ 8
Event: 3.321 Thread 0x000000005785f800 Uncommon trap: reason=class_check action=maybe_recompile pc=0x00000000029b65d8 method=java.lang.String.equals(Ljava/lang/Object;)Z @ 8
Event: 3.367 Thread 0x000000005785f800 Uncommon trap: reason=unstable_if action=reinterpret pc=0x0000000002a6cfd0 method=java.awt.MultipleGradientPaintContext.indexIntoGradientsArrays(F)I @ 118
Event: 3.368 Thread 0x000000005785f800 Uncommon trap: reason=unstable_if action=reinterpret pc=0x0000000002a6b6b4 method=java.awt.MultipleGradientPaintContext.indexIntoGradientsArrays(F)I @ 118
Event: 4.170 Thread 0x000000005785f800 Uncommon trap: reason=unstable_if action=reinterpret pc=0x0000000002a898d8 method=java.lang.String.<init>([CII)V @ 18
Event: 17.960 Thread 0x000000005785f800 Uncommon trap: reason=null_check action=make_not_entrant pc=0x0000000002d6b2a8 method=sun.java2d.pipe.AlphaPaintPipe.renderPathTile(Ljava/lang/Object;[BIIIIII)V @ 57
Event: 27.893 Thread 0x000000005785f800 Uncommon trap: reason=unstable_if action=reinterpret pc=0x0000000002a1f520 method=java.lang.String.indexOf([CII[CIII)I @ 3
Event: 27.906 Thread 0x000000005785f800 Uncommon trap: reason=unstable_if action=reinterpret pc=0x0000000002df3c70 method=java.util.HashMap.putVal(ILjava/lang/Object;Ljava/lang/Object;ZZ)Ljava/lang/Object; @ 236
Event: 28.238 Thread 0x000000005785f800 Uncommon trap: reason=unstable_if action=reinterpret pc=0x0000000002dbf4fc method=java.security.AccessControlContext.optimize()Ljava/security/AccessControlContext; @ 220
Event: 28.290 Thread 0x000000005785f800 Uncommon trap: reason=unstable_if action=reinterpret pc=0x0000000002dc65c4 method=sun.util.logging.PlatformLogger.isLoggable(Lsun/util/logging/PlatformLogger$Level;)Z @ 18

Internal exceptions (10 events):
Event: 0.233 Thread 0x000000000039e000 Exception <a 'java/lang/ClassNotFoundException': javax/swing/JToolBarSeparator> (0x00000000eb83a608) thrown at [D:\re\puppet\workspace\8-2-build-windows-amd64-cygwin\jdk8u73\6086\hotspot\src\share\vm\classfile\systemDictionary.cpp, line 210]
Event: 0.233 Thread 0x000000000039e000 Exception <a 'java/lang/ClassNotFoundException': ToolBarSeparator> (0x00000000eb83aaa0) thrown at [D:\re\puppet\workspace\8-2-build-windows-amd64-cygwin\jdk8u73\6086\hotspot\src\share\vm\classfile\systemDictionary.cpp, line 210]
Event: 0.233 Thread 0x000000000039e000 Exception <a 'java/lang/ClassNotFoundException': ToolTip> (0x00000000eb83b1e0) thrown at [D:\re\puppet\workspace\8-2-build-windows-amd64-cygwin\jdk8u73\6086\hotspot\src\share\vm\classfile\systemDictionary.cpp, line 210]
Event: 0.234 Thread 0x000000000039e000 Exception <a 'java/lang/ClassNotFoundException': Tree> (0x00000000eb83be00) thrown at [D:\re\puppet\workspace\8-2-build-windows-amd64-cygwin\jdk8u73\6086\hotspot\src\share\vm\classfile\systemDictionary.cpp, line 210]
Event: 0.234 Thread 0x000000000039e000 Exception <a 'java/lang/ClassNotFoundException': Tree> (0x00000000eb83c540) thrown at [D:\re\puppet\workspace\8-2-build-windows-amd64-cygwin\jdk8u73\6086\hotspot\src\share\vm\classfile\systemDictionary.cpp, line 210]
Event: 0.234 Thread 0x000000000039e000 Exception <a 'java/lang/ClassNotFoundException': javax/swing/JTreeCell> (0x00000000eb83c8c0) thrown at [D:\re\puppet\workspace\8-2-build-windows-amd64-cygwin\jdk8u73\6086\hotspot\src\share\vm\classfile\systemDictionary.cpp, line 210]
Event: 0.234 Thread 0x000000000039e000 Exception <a 'java/lang/ClassNotFoundException': TreeCell> (0x00000000eb83cd48) thrown at [D:\re\puppet\workspace\8-2-build-windows-amd64-cygwin\jdk8u73\6086\hotspot\src\share\vm\classfile\systemDictionary.cpp, line 210]
Event: 0.234 Thread 0x000000000039e000 Exception <a 'java/lang/ClassNotFoundException': RootPane> (0x00000000eb83d7a8) thrown at [D:\re\puppet\workspace\8-2-build-windows-amd64-cygwin\jdk8u73\6086\hotspot\src\share\vm\classfile\systemDictionary.cpp, line 210]
Event: 3.187 Thread 0x000000005785f800 Implicit null exception at 0x0000000002ae1aca to 0x0000000002ae1dd5
Event: 17.960 Thread 0x000000005785f800 Implicit null exception at 0x0000000002d685f6 to 0x0000000002d6b289

Events (10 events):
Event: 113.106 Thread 0x0000000057490800 flushing nmethod 0x000000000294ef10
Event: 113.106 Thread 0x0000000057490800 flushing nmethod 0x0000000002956910
Event: 113.106 Thread 0x0000000057490800 flushing nmethod 0x0000000002965e90
Event: 113.106 Thread 0x0000000057490800 flushing nmethod 0x0000000002966e50
Event: 113.113 Thread 0x0000000055aae800 flushing nmethod 0x00000000029a93d0
Event: 114.108 Thread 0x0000000057490800 flushing nmethod 0x00000000029f6dd0
Event: 114.108 Thread 0x0000000057490800 flushing nmethod 0x0000000002a2d750
Event: 117.111 Thread 0x0000000055aa7000 flushing nmethod 0x0000000002a89b10
Event: 117.111 Thread 0x0000000055aa7000 flushing nmethod 0x0000000002a91090
Event: 118.112 Thread 0x0000000057490800 flushing nmethod 0x0000000002b0a210


Dynamic libraries:
0x000000013f0a0000 - 0x000000013f0d7000 	C:\Program Files\Java\jdk1.8.0_73\bin\java.exe
0x0000000076ec0000 - 0x0000000077069000 	C:\Windows\SYSTEM32\ntdll.dll
0x0000000076da0000 - 0x0000000076ebf000 	C:\Windows\system32\kernel32.dll
0x000007fefcd30000 - 0x000007fefcd9b000 	C:\Windows\system32\KERNELBASE.dll
0x000007fefda80000 - 0x000007fefdb5b000 	C:\Windows\system32\ADVAPI32.dll
0x000007fefd450000 - 0x000007fefd4ef000 	C:\Windows\system32\msvcrt.dll
0x000007fefda60000 - 0x000007fefda7f000 	C:\Windows\SYSTEM32\sechost.dll
0x000007fefde40000 - 0x000007fefdf6d000 	C:\Windows\system32\RPCRT4.dll
0x0000000076ca0000 - 0x0000000076d9a000 	C:\Windows\system32\USER32.dll
0x000007fefd910000 - 0x000007fefd977000 	C:\Windows\system32\GDI32.dll
0x000007fefde10000 - 0x000007fefde1e000 	C:\Windows\system32\LPK.dll
0x000007feff100000 - 0x000007feff1c9000 	C:\Windows\system32\USP10.dll
0x000007fefb180000 - 0x000007fefb374000 	C:\Windows\WinSxS\amd64_microsoft.windows.common-controls_6595b64144ccf1df_6.0.7601.17514_none_fa396087175ac9ac\COMCTL32.dll
0x000007fefd3d0000 - 0x000007fefd441000 	C:\Windows\system32\SHLWAPI.dll
0x000007fefef20000 - 0x000007fefef4e000 	C:\Windows\system32\IMM32.DLL
0x000007fefeff0000 - 0x000007feff0f9000 	C:\Windows\system32\MSCTF.dll
0x00000000561e0000 - 0x00000000562b2000 	C:\Program Files\Java\jdk1.8.0_73\jre\bin\msvcr100.dll
0x0000000054820000 - 0x00000000550b0000 	C:\Program Files\Java\jdk1.8.0_73\jre\bin\server\jvm.dll
0x000007fefb3e0000 - 0x000007fefb3e9000 	C:\Windows\system32\WSOCK32.dll
0x000007fefd180000 - 0x000007fefd1cd000 	C:\Windows\system32\WS2_32.dll
0x000007fefed00000 - 0x000007fefed08000 	C:\Windows\system32\NSI.dll
0x000007fefba90000 - 0x000007fefbacb000 	C:\Windows\system32\WINMM.dll
0x000007fefc1b0000 - 0x000007fefc1bc000 	C:\Windows\system32\VERSION.dll
0x0000000077090000 - 0x0000000077097000 	C:\Windows\system32\PSAPI.DLL
0x0000000073e20000 - 0x0000000073e2f000 	C:\Program Files\Java\jdk1.8.0_73\jre\bin\verify.dll
0x0000000058450000 - 0x0000000058479000 	C:\Program Files\Java\jdk1.8.0_73\jre\bin\java.dll
0x0000000073e00000 - 0x0000000073e16000 	C:\Program Files\Java\jdk1.8.0_73\jre\bin\zip.dll
0x000007fefdf70000 - 0x000007fefecf8000 	C:\Windows\system32\SHELL32.dll
0x000007fefed10000 - 0x000007fefef13000 	C:\Windows\system32\ole32.dll
0x000007fefcca0000 - 0x000007fefccaf000 	C:\Windows\system32\profapi.dll
0x0000000057a70000 - 0x0000000057c08000 	C:\Program Files\Java\jdk1.8.0_73\jre\bin\awt.dll
0x000007fefd980000 - 0x000007fefda57000 	C:\Windows\system32\OLEAUT32.dll
0x000007fefb930000 - 0x000007fefb986000 	C:\Windows\system32\uxtheme.dll
0x000007fefb910000 - 0x000007fefb928000 	C:\Windows\system32\dwmapi.dll
0x000007fefccb0000 - 0x000007fefccbf000 	C:\Windows\system32\CRYPTBASE.dll
0x00000000583e0000 - 0x0000000058427000 	C:\Program Files\Java\jdk1.8.0_73\jre\bin\fontmanager.dll
0x000000006f8a0000 - 0x000000006f8d1000 	C:\Program Files\Java\jdk1.8.0_73\jre\bin\jpeg.dll
0x0000000066310000 - 0x000000006632a000 	C:\Program Files\Java\jdk1.8.0_73\jre\bin\net.dll
0x000007fefbb80000 - 0x000007fefbbd5000 	C:\Windows\system32\mswsock.dll
0x000007fefb8e0000 - 0x000007fefb8e7000 	C:\Windows\System32\wship6.dll
0x0000000058430000 - 0x0000000058441000 	C:\Program Files\Java\jdk1.8.0_73\jre\bin\nio.dll
0x0000000011e00000 - 0x0000000011e42000 	C:\Program Files\Java\jdk1.8.0_73\jre\bin\t2k.dll
0x0000000180000000 - 0x0000000180054000 	C:\Program Files\UniKey\UKHook40.dll
0x00000000583b0000 - 0x00000000583da000 	C:\Program Files\Java\jdk1.8.0_73\jre\bin\dcpr.dll
0x000007fefd330000 - 0x000007fefd3c9000 	C:\Windows\system32\CLBCatQ.DLL
0x000007fefadf0000 - 0x000007fefaf51000 	C:\Windows\system32\WindowsCodecs.dll
0x000007fefcb30000 - 0x000007fefcb87000 	C:\Windows\system32\apphelp.dll
0x000007feef9f0000 - 0x000007feefa25000 	C:\Windows\system32\EhStorShell.dll
0x000007fefd730000 - 0x000007fefd907000 	C:\Windows\system32\SETUPAPI.dll
0x000007fefd050000 - 0x000007fefd086000 	C:\Windows\system32\CFGMGR32.dll
0x000007fefcdb0000 - 0x000007fefcdca000 	C:\Windows\system32\DEVOBJ.dll
0x000007fefbd20000 - 0x000007fefbe4c000 	C:\Windows\system32\PROPSYS.dll
0x000007feefe30000 - 0x000007feefe47000 	C:\Program Files (x86)\Internet Download Manager\IDMShellExt64.dll
0x000007feef970000 - 0x000007feef9ee000 	C:\Windows\System32\cscui.dll
0x000007feefb40000 - 0x000007feefb4c000 	C:\Windows\System32\CSCDLL.dll
0x000007fef0360000 - 0x000007fef036f000 	C:\Windows\system32\CSCAPI.dll
0x000007feef220000 - 0x000007feef2a0000 	C:\Windows\system32\ntshrui.dll
0x000007fefc510000 - 0x000007fefc533000 	C:\Windows\system32\srvcli.dll
0x000007fefa7f0000 - 0x000007fefa7fb000 	C:\Windows\system32\slc.dll
0x000007fee5100000 - 0x000007fee5162000 	C:\Program Files\Lingoes\Translator2\OpenText64.dll
0x000007fee5700000 - 0x000007fee5754000 	C:\Windows\system32\OLEACC.dll
0x000007fefc280000 - 0x000007fefc287000 	C:\Windows\System32\wshtcpip.dll
0x000007fefc040000 - 0x000007fefc09b000 	C:\Windows\system32\DNSAPI.dll
0x000007fefa520000 - 0x000007fefa547000 	C:\Windows\system32\IPHLPAPI.DLL
0x000007fefa510000 - 0x000007fefa51b000 	C:\Windows\system32\WINNSI.DLL
0x000007fef0100000 - 0x000007fef0108000 	C:\Windows\system32\rasadhlp.dll
0x000007fefa390000 - 0x000007fefa3e3000 	C:\Windows\System32\fwpuclnt.dll
0x000007fefc470000 - 0x000007fefc487000 	C:\Windows\system32\CRYPTSP.dll
0x000007fefa160000 - 0x000007fefa1a7000 	C:\Windows\system32\rsaenh.dll
0x000007fefc3a0000 - 0x000007fefc3be000 	C:\Windows\system32\USERENV.dll
0x000007fefa370000 - 0x000007fefa388000 	C:\Windows\system32\dhcpcsvc.DLL
0x000007fefa350000 - 0x000007fefa361000 	C:\Windows\system32\dhcpcsvc6.DLL
0x0000000070780000 - 0x00000000707a4000 	C:\Program Files\Java\jdk1.8.0_73\jre\bin\sunec.dll
0x000007fefa8a0000 - 0x000007fefa8b5000 	C:\Windows\system32\NLAapi.dll
0x000007feeca90000 - 0x000007feecaa5000 	C:\Windows\system32\napinsp.dll
0x000007feeca70000 - 0x000007feeca89000 	C:\Windows\system32\pnrpnsp.dll
0x000007fee9170000 - 0x000007fee917b000 	C:\Windows\System32\winrnr.dll
0x000007fee6230000 - 0x000007fee6240000 	C:\Windows\system32\wshbth.dll

VM Arguments:
jvm_args: -Dfile.encoding=UTF-8 
java_command: doanhkii.Menu
java_class_path (initial): C:\Users\Administrator\Desktop\PROJECT HKL\THUVIEN\jcalendar-1.4.jar;C:\Users\Administrator\Desktop\PROJECT HKL\THUVIEN\sqljdbc4.jar;E:\batch123\java3\DoAnHKII\build\classes
Launcher Type: SUN_STANDARD

Environment Variables:
PATH=C:\ProgramData\Oracle\Java\javapath;C:\Windows\system32;C:\Windows;C:\Windows\System32\Wbem;C:\Windows\System32\WindowsPowerShell\v1.0\;C:\Program Files\Microsoft SQL Server\110\DTS\Binn\;C:\Program Files (x86)\Microsoft SQL Server\110\Tools\Binn\;C:\Program Files\Microsoft SQL Server\110\Tools\Binn\;C:\Program Files (x86)\Microsoft SQL Server\110\Tools\Binn\ManagementStudio\;C:\Program Files (x86)\Microsoft Visual Studio 10.0\Common7\IDE\PrivateAssemblies\;C:\Program Files (x86)\Microsoft SQL Server\110\DTS\Binn\;C:\Program Files\MATLAB\R2013a\runtime\win64;C:\Program Files\MATLAB\R2013a\bin;C:\Program Files (x86)\Skype\Phone\;C:\OrCAD\OrCAD_16.6_Lite\tools\pcb\bin;C:\OrCAD\OrCAD_16.6_Lite\tools\fet\bin;C:\OrCAD\OrCAD_16.6_Lite\OpenAccess\bin\win32\opt;C:\OrCAD\OrCAD_16.6_Lite\tools\bin;C:\OrCAD\OrCAD_16.6_Lite\tools\Capture;C:\OrCAD\OrCAD_16.6_Lite\tools\PSpice;
USERNAME=Administrator
OS=Windows_NT
PROCESSOR_IDENTIFIER=Intel64 Family 6 Model 60 Stepping 3, GenuineIntel



---------------  S Y S T E M  ---------------

OS: Windows 7 , 64 bit Build 7601 (6.1.7601.18015)

CPU:total 4 (2 cores per cpu, 2 threads per core) family 6 model 60 stepping 3, cmov, cx8, fxsr, mmx, sse, sse2, sse3, ssse3, sse4.1, sse4.2, popcnt, avx, avx2, aes, clmul, erms, lzcnt, ht, tsc, tscinvbit, bmi1, bmi2

Memory: 4k page, physical 4072560k(694800k free), swap 4072560k(5124k free)

vm_info: Java HotSpot(TM) 64-Bit Server VM (25.73-b02) for windows-amd64 JRE (1.8.0_73-b02), built on Jan 29 2016 17:38:49 by "java_re" with MS VC++ 10.0 (VS2010)

time: Fri Jul 22 23:32:50 2016
elapsed time: 172 seconds (0d 0h 2m 52s)

